{
  "type": "service_account",
  "project_id": "tempno-com",
  "private_key_id": "a492b466e3f28449ffe91eae1a506ac43cd2a4d5",
  "private_key": "-----BEGIN PRIVATE KEY-----\nMIIEvgIBADANBgkqhkiG9w0BAQEFAASCBKgwggSkAgEAAoIBAQC0Ud0rrHenOo9L\noTJej6p+8R/kT3u57Ytb6LSe4jR+sNbp8Zlypth4aRgCvdRyCqGAwmHYqiY6cQfn\nmlj+D/pBDl7rwgVxS6k8H+L9RTd0XCzq83LR7OWcFmUGK/g5s6cfdkbR28FWR7oH\ndCXHZyLF1HlAgHWl9YoUnStHVzOXIsLtMfCOpuyOvi+tIpAuahPTKsXdVxN5zCZI\nSlP6qyf9+Xd9/hadK+T0ntshF2fjzFtPpGVw7E68kUSNYBRwr92xWQR07Fi9l7sA\nFWGOn+HPiVl60//BR74nBcx43NLG60ZPZt09u+B0ZPee3h+Ion4DwG7/X6zV8TeD\n2rhPYJyRAgMBAAECggEAAPZZ4ZCJT+9oUd1BnU8TeBt10dxZuu+JWZt3kUyAPrfX\nYca8DKhWyee3rNYSAuzLGVqQNp2L2C5/vgztEigILB41Q/lUWZsvg0ZhSfw7VEfk\npnlXoMasoAVfkyWbbMVobCrPrHGJidoWpFEKnZKPlTIx1nYJCrJxgvQmxbnxqMoQ\nqHbHN9/5GEQeMnDVrZ5XS5gzcT3sV/DZL6orS8rRrL1K96qEOQr21PD2ZCq7hm+E\nXDasYLLH7CnCePJcedLOiAM/0CypQfIgvNq0lNNBm8zSMlUI+/lPaNE6J/5eO7Kh\nkuGiPXYOjxfXrs+F99tFPl+MN1KkbFPOcpu+x942MQKBgQDctdRYKYPU+bjanC6g\nd0072d9SEUbQ+CU/HHe+AL7BjLaJAUd26zsv0x0utt7AzhTwi9dZGuqRiE+6HISu\nXXYqLgzMk2VsRqI+I2nIlOcFO5ZKRxAy5pZrVbs04hW9a+mMM01QKRay/nzwlteC\nIOVFm48CcEMoFlXpSwWDqdlHuQKBgQDRJsKneJOm3pv1UhLGNheZn0R4x5ZTzoyk\njdO2ZLQ/PX/l6rNpTeRbK4nY+CEW80itBUk66KWbk0a/igxQKhMydKLmJCdFUYe+\nYnnfOGw8+KTtDeZWFq4deYpKko0X3n3G6OTx1mUd+tPhOUgaeVBzxdpBptILofpC\nBi/dpPw3mQKBgQCuW2KFxz4jOKgk4y8ei0DTYFnAnm9gVDgwdE/QJQyNIJlvADix\npEEcld2+8q5kiCkYopCcDtxx3cqGD1Nt392iksB/uI1uDRrMlfNShvc+NgWTZjJQ\n08LOxmpe66AbBS36GOkhw2PwQYT4F2HmphAZfjtqxL744zQ5WY/gpIRG2QKBgQCl\n2RaBthtfNyZ0YaCBjGMqbiDdpWaPDjp4Qf6foztK6nmA15ts5Vcu9FdatWeHy2LV\n0FtBWzn3I9H2EIGzD6opWFPUKtb5IK2DSpNZbmRl9MTTNTJxEYr/1GDUwWEgjE0w\nbX0eR+Pm4f8hmUqTs58YLsvjQ2VL1CWeNUm/eBSIAQKBgF416rv+fmHy030QdlsB\nNS3a8nc/3Y+UK8nY3mJaey2wI6IB5ee+ZEMOkwtkZ7HO+CikDDuSK7kgpkc8Ec4N\n3Gx4ncqBhuFkJOxahTIYkFsAczqEw/TLW7cgDZ1em1EspDDEjqkYdHl1yGqbu20x\nAKIaL5MnZhuJFEgAfO0H3E1D\n-----END PRIVATE KEY-----\n",
  "client_email": "tempno-com@appspot.gserviceaccount.com",
  "client_id": "106076825826610244328",
  "auth_uri": "https://accounts.google.com/o/oauth2/auth",
  "token_uri": "https://oauth2.googleapis.com/token",
  "auth_provider_x509_cert_url": "https://www.googleapis.com/oauth2/v1/certs",
  "client_x509_cert_url": "https://www.googleapis.com/robot/v1/metadata/x509/tempno-com%40appspot.gserviceaccount.com"
}
